%YAML 1.1
%TAG !u! tag:unity3d.com,2011:
--- !u!1045 &1
EditorBuildSettings:
  m_ObjectHideFlags: 0
  serializedVersion: 2
  m_Scenes:
  - enabled: 1
    path: Assets/Scenes/MenuScene.unity
    guid: 4270bb7cb311c4b82b02638cf3be2bef
  - enabled: 1
    path: Assets/Scenes/GameScene.unity
    guid: 34900e7de2f5345be964e39387f01a7c
  m_configObjects: {}
